Summarize fields — analyze_data • whereiation
…
    See also

    Other manipulation functions: 
generate_estimate_details(),
refactor_columns()

    Examples

analyze_data(iris, dep_var = "Sepal.Length")
#> Joining, by = "field"
#> # A tibble: 26 x 10
#>    field value factor_avg     n field_r_sq field_r_sq_adj field_p_value
#>    <fct> <chr>      <dbl> <int>      <dbl>          <dbl>         <dbl>
#>  1 Sepa… [2.2…       5.31     7      0.110         0.0524      5.44e- 2
#>  2 Sepa… [2.4…       5.89    22      0.110         0.0524      5.44e- 2
#>  3 Sepa… [2.7…       6.22    24      0.110         0.0524      5.44e- 2
#>  4 Sepa… [2.9…       6.02    37      0.110         0.0524      5.44e- 2
#>  5 Sepa… [3.2…       5.69    31      0.110         0.0524      5.44e- 2
#>  6 Sepa… [3.4…       5.26    10      0.110         0.0524      5.44e- 2
#>  7 Sepa… [3.6…       5.75    11      0.110         0.0524      5.44e- 2
#>  8 Peta… [0.9…       4.98    37      0.827         0.817       7.18e-50
#>  9 Peta… [1.5…       5.07    13      0.827         0.817       7.18e-50
#> 10 Peta… [3.3…       5.49     8      0.827         0.817       7.18e-50
#> # … with 16 more rows, and 3 more variables: rescale_factor_avg <dbl>,
#> #   grand_avg <dbl>, field_wt <dbl>
analyze_data(iris, dep_var = "Sepal.Length", return = "list")
#> Joining, by = "field"
#> $data
#> # A tibble: 26 x 10
#>    field value factor_avg     n field_r_sq field_r_sq_adj field_p_value
#>    <fct> <chr>      <dbl> <int>      <dbl>          <dbl>         <dbl>
#>  1 Sepa… [2.2…       5.31     7      0.110         0.0524      5.44e- 2
#>  2 Sepa… [2.4…       5.89    22      0.110         0.0524      5.44e- 2
#>  3 Sepa… [2.7…       6.22    24      0.110         0.0524      5.44e- 2
#>  4 Sepa… [2.9…       6.02    37      0.110         0.0524      5.44e- 2
#>  5 Sepa… [3.2…       5.69    31      0.110         0.0524      5.44e- 2
#>  6 Sepa… [3.4…       5.26    10      0.110         0.0524      5.44e- 2
#>  7 Sepa… [3.6…       5.75    11      0.110         0.0524      5.44e- 2
#>  8 Peta… [0.9…       4.98    37      0.827         0.817       7.18e-50
#>  9 Peta… [1.5…       5.07    13      0.827         0.817       7.18e-50
#> 10 Peta… [3.3…       5.49     8      0.827         0.817       7.18e-50
#> # … with 16 more rows, and 3 more variables: rescale_factor_avg <dbl>,
#> #   grand_avg <dbl>, field_wt <dbl>
#> 
#> $field_stats
#> # A tibble: 4 x 4
#>   field        field_r_sq field_r_sq_adj field_p_value
#>   <chr>             <dbl>          <dbl>         <dbl>
#> 1 Sepal.Width       0.110         0.0524      5.44e- 2
#> 2 Petal.Length      0.827         0.817       7.18e-50
#> 3 Petal.Width       0.685         0.665       5.95e-31
#> 4 Species           0.619         0.614       1.67e-31
#> 
#> $factor_stats
#> # A tibble: 26 x 4
#>    field        value         factor_avg     n
#>    <chr>        <chr>              <dbl> <int>
#>  1 Sepal.Width  [2.24,2.48)         5.31     7
#>  2 Sepal.Width  [2.48,2.72)         5.89    22
#>  3 Sepal.Width  [2.72,2.96)         6.22    24
#>  4 Sepal.Width  [2.96,3.2)          6.02    37
#>  5 Sepal.Width  [3.2,3.44)          5.69    31
#>  6 Sepal.Width  [3.44,3.68)         5.26    10
#>  7 Sepal.Width  [3.68,3.92)         5.75    11
#>  8 Petal.Length [0.9941,1.59)       4.98    37
#>  9 Petal.Length [1.59,2.18)         5.07    13
#> 10 Petal.Length [3.36,3.95)         5.49     8
#> # … with 16 more rows
…
